cloudresearch
…
Demographics

cleaned_names %>% 
  get_summary_stats(age, type="mean_sd")

# A tibble: 256 × 5
   submitter_id      variable     n  mean    sd
   <chr>             <fct>    <dbl> <dbl> <dbl>
 1 R_11hMLgayl3bOGUJ age          1    43    NA
 2 R_11uMgANsqqGYGAN age          1    72    NA
 3 R_14e0ZIzl0uaTm5T age          1    18    NA
 4 R_1AFRCpqCA3JMOjb age          1    43    NA
 5 R_1BfjRFmW7NzLfaa age          1    25    NA
 6 R_1EuIPO4kBrR5IZW age          1    37    NA
 7 R_1F4HQ0k12SZPtel age          1    37    NA
 8 R_1FLJzxikRBRrFUp age          1    62    NA
 9 R_1HNBkQU6HdySuDR age          1    19    NA
10 R_1IgbpplVnMXJsl4 age          1    25    NA
# ℹ 246 more rows
…
